Ánalisis de datos de elecciones
…
datos_tidy <- datos_siglas |> inner_join(ccaa, by = c("codigo_ccaa" = "Código"))
datos_tidy <- datos_tidy |> inner_join(provincias, by = c("codigo_provincia" = "Código"))
datos_tidy <- datos_tidy |> rename(ccaa = Literal.x)
datos_tidy <- datos_tidy |> rename(provincia= Literal.y)

Después de todos los cambios realizados, este es el conjunto de datos final con el que vamos a trabajar:

datos_tidy <-
  datos_tidy |>
  select(fecha,codigo_ccaa,ccaa,codigo_provincia, provincia,codigo_municipio,municipio, cod_mun_unico, everything())

datos_tidy

# A tibble: 396,735 × 20
   fecha codigo_ccaa ccaa  codigo_provincia provincia codigo_municipio municipio
   <chr> <chr>       <chr> <chr>            <chr>     <chr>            <chr>    
 1 2008… 14          País… 01               Araba/Ál… 001              Alegría-…
 2 2008… 14          País… 01               Araba/Ál… 001              Alegría-…
 3 2008… 14          País… 01               Araba/Ál… 001              Alegría-…
 4 2008… 14          País… 01               Araba/Ál… 001              Alegría-…
 5 2008… 14          País… 01               Araba/Ál… 001              Alegría-…
 6 2008… 14          País… 01               Araba/Ál… 001              Alegría-…
 7 2008… 14          País… 01               Araba/Ál… 001              Alegría-…
 8 2008… 14          País… 01               Araba/Ál… 001              Alegría-…
 9 2008… 14          País… 01               Araba/Ál… 001              Alegría-…
10 2008… 14          País… 01               Araba/Ál… 001              Alegría-…
# ℹ 396,725 more rows
# ℹ 13 more variables: cod_mun_unico <glue>, anno <dbl>, mes <chr>,
#   numero_mesas <dbl>, censo <dbl>, participacion_1 <dbl>,
#   participacion_2 <dbl>, votos_blancos <dbl>, votos_nulos <dbl>,
#   votos_candidaturas <dbl>, partidos <chr>, votos <dbl>, siglas <chr>
…
Consulta 3

¿Cuál es el partido ganador en los municipios de más de 100000 habitantes de censo en cada una de las elecciones?

datos_tidy |> 
  filter(censo > 100000) |> 
  group_by(fecha, municipio) |> 
  filter(rank(-votos) == 1) |>
  select(fecha, municipio, siglas) |> 
  arrange(fecha, municipio)

# A tibble: 282 × 3
# Groups:   fecha, municipio [282]
   fecha   municipio         siglas
   <chr>   <chr>             <chr> 
 1 2008-03 Albacete          PP    
 2 2008-03 Alcalá de Henares PP    
 3 2008-03 Alcorcón          PP    
 4 2008-03 Alicante/Alacant  PP    
 5 2008-03 Almería           PP    
 6 2008-03 Badajoz           PP    
 7 2008-03 Badalona          PSOE  
 8 2008-03 Barcelona         PSOE  
 9 2008-03 Bilbao            PSOE  
10 2008-03 Burgos            PP    
# ℹ 272 more rows
…
primeros_partidos <- datos_tidy |> 
  filter(censo > 100000) |> 
  group_by(fecha, municipio) |> 
  slice_max(votos, n=2) |> 
  arrange(desc(votos)) |> 
  mutate(primerpartido = first(siglas)) |> 
  mutate(segundopartido = last(siglas)) |>
  select(fecha, municipio, primerpartido, segundopartido) |> 
  arrange(fecha, municipio)

primeros_partidos <- distinct(primeros_partidos, fecha, municipio, .keep_all = TRUE)

primeros_partidos

# A tibble: 282 × 4
# Groups:   fecha, municipio [282]
   fecha   municipio         primerpartido segundopartido
   <chr>   <chr>             <chr>         <chr>         
 1 2008-03 Albacete          PP            PSOE          
 2 2008-03 Alcalá de Henares PP            PSOE          
 3 2008-03 Alcorcón          PP            PSOE          
 4 2008-03 Alicante/Alacant  PP            PSOE          
 5 2008-03 Almería           PP            PSOE          
 6 2008-03 Badajoz           PP            PSOE          
 7 2008-03 Badalona          PSOE          PP            
 8 2008-03 Barcelona         PSOE          Otros         
 9 2008-03 Bilbao            PSOE          PNV           
10 2008-03 Burgos            PP            PSOE          
# ℹ 272 more rows

Cuando el primero fue el PSOE:

primeros_partidos |> 
  filter(primerpartido=="PSOE") |> 
  select(fecha, municipio, segundopartido)

# A tibble: 109 × 3
# Groups:   fecha, municipio [109]
   fecha   municipio                   segundopartido
   <chr>   <chr>                       <chr>         
 1 2008-03 Badalona                    PP            
 2 2008-03 Barcelona                   Otros         
 3 2008-03 Bilbao                      PNV           
 4 2008-03 Coruña, A                   PP            
 5 2008-03 Cádiz                       PP            
 6 2008-03 Donostia/San Sebastián      PP            
 7 2008-03 Fuenlabrada                 PP            
 8 2008-03 Getafe                      PP            
 9 2008-03 Gijón                       PP            
10 2008-03 Hospitalet de Llobregat, L' PP            
# ℹ 99 more rows

Cuando el primero fue el PP:

primeros_partidos |> 
  filter(primerpartido=="PP") |> 
  select(fecha, municipio, segundopartido)

# A tibble: 139 × 3
# Groups:   fecha, municipio [139]
   fecha   municipio            segundopartido
   <chr>   <chr>                <chr>         
 1 2008-03 Albacete             PSOE          
 2 2008-03 Alcalá de Henares    PSOE          
 3 2008-03 Alcorcón             PSOE          
 4 2008-03 Alicante/Alacant     PSOE          
 5 2008-03 Almería              PSOE          
 6 2008-03 Badajoz              PSOE          
 7 2008-03 Burgos               PSOE          
 8 2008-03 Cartagena            PSOE          
 9 2008-03 Castelló de la Plana PSOE          
10 2008-03 Córdoba              PSOE          
# ℹ 129 more rows
…
¿Cuáles son los municipios con mayor porcentaje de votos nulos de España?

mun_pct_nulos <- datos_tidy |> 
  select(fecha, municipio, votos_blancos, votos_nulos, votos_candidaturas) |> 
  group_by(fecha, municipio) |> 
  distinct(fecha, municipio, .keep_all = TRUE) |> 
  arrange(fecha,municipio) |> 
  ungroup() |> 
  group_by(municipio) |> 
  reframe(pct_nulos = sum(votos_nulos) / (sum(votos_candidaturas) + sum(votos_blancos) + sum(votos_nulos)) * 100) |> 
  arrange(desc(pct_nulos))

mun_pct_nulos

# A tibble: 8,118 × 2
   municipio             pct_nulos
   <chr>                     <dbl>
 1 Reinoso                   10.1 
 2 Fresneda de la Sierra      8.07
 3 Valdevacas de Montejo      7.03
 4 Arraya de Oca              6.72
 5 Encinas                    6.67
 6 Villodre                   6.59
 7 Cerbón                     5.69
 8 Pomer                      5.66
 9 Muduex                     5.64
10 Velilla de los Ajos        5.62
# ℹ 8,108 more rows
…
¿Es cierto que ciertos partidos ganan en lo rural?

rural <- datos_tidy |>
  filter(censo < 30000)

votos_por_partido_rural <- rural |> 
  group_by(partidos) |> 
  summarise(porcentaje_votos = sum(votos) / sum(censo) * 100)

votos_por_partido_rural |> 
  arrange(desc(porcentaje_votos))

# A tibble: 446 × 2
   partidos                                                     porcentaje_votos
   <chr>                                                                   <dbl>
 1 PARTIDO SOCIALISTA OBRERO ESPAÑOL DE ANDALUCIA                           42.7
 2 PARTIDO POPULAR-EXTREMADURA UNIDA                                        37.2
 3 PARTIDO POPULAR EN COALICIÓN CON EL PARTIDO ARAGONÉS                     35.6
 4 UNION DEL PUEBLO NAVARRO EN COALICION CON EL PARTIDO POPULAR             27.8
 5 PARTIDO DOS SOCIALISTAS DE GALICIA-PARTIDO SOCIALISTA OBRER…             27.8
 6 UNIÓN DEL PUEBLO NAVARRO EN COALICIÓN CON EL PARTIDO POPULAR             26.4
 7 PARTIDO POPULAR EN COALICIÓN CON EL PARTIDO ARAGON                       26.0
 8 CONVERGÈNCIA i UNIÓ                                                      24.8
 9 PARTIDO SOCIALISTA OBRERO ESPAÑOL                                        24.3
10 PARTIDO POPULAR                                                          23.7
# ℹ 436 more rows
…
# Poner las fechas de la misma manera
resultados_2019$fecha <- ifelse(resultados_2019$fecha == "2019-04", paste("2019-04-28"), resultados_2019$fecha)
resultados_2019$fecha <- ifelse(resultados_2019$fecha == "2019-11", paste("2019-11-10"), resultados_2019$fecha)
resultados_2019$fecha <- as.Date(resultados_2019$fecha, format = "%Y-%m-%d")
encuestas_filtradas$siglas <- ifelse(encuestas_filtradas$siglas == "UP", paste("UP-IU"), encuestas_filtradas$siglas)

errores <- inner_join(encuestas_filtradas, resultados_2019, by = c("siglas", "date_elec" = "fecha")) |> 
  mutate(error = prediccion - porcentaje_real)

Código

errores

# A tibble: 3,020 × 13
   date_elec  id_pollster pollster media field_date_from field_date_to exit_poll
   <date>     <chr>       <chr>    <chr> <date>          <date>            <dbl>
 1 2019-04-28 pollster-80 SOCIOMÉ… EL E… 2019-04-25      2019-04-27            0
 2 2019-04-28 pollster-80 SOCIOMÉ… EL E… 2019-04-25      2019-04-27            0
 3 2019-04-28 pollster-80 SOCIOMÉ… EL E… 2019-04-25      2019-04-27            0
 4 2019-04-28 pollster-80 SOCIOMÉ… EL E… 2019-04-25      2019-04-27            0
 5 2019-04-28 pollster-80 SOCIOMÉ… EL E… 2019-04-25      2019-04-27            0
 6 2019-04-28 pollster-80 SOCIOMÉ… EL E… 2019-04-25      2019-04-27            0
 7 2019-04-28 pollster-74 IMOP     COPE  2019-04-25      2019-04-27            0
 8 2019-04-28 pollster-74 IMOP     COPE  2019-04-25      2019-04-27            0
 9 2019-04-28 pollster-74 IMOP     COPE  2019-04-25      2019-04-27            0
10 2019-04-28 pollster-74 IMOP     COPE  2019-04-25      2019-04-27            0
# ℹ 3,010 more rows
# ℹ 6 more variables: size <dbl>, turnout <dbl>, siglas <chr>,
#   prediccion <dbl>, porcentaje_real <dbl>, error <dbl>
…
